{
  "name": "Gimmighoul",
  "nationalPokedexNumber": 999,
  "primaryType": "ghost",
  "abilities": [
    "rattled"
  ],
  "baseStats": {
    "hp": 45,
    "attack": 30,
    "defence": 70,
    "special_attack": 75,
    "special_defence": 70,
    "speed": 10
  },
  "catchRate": 45,
  "maleRatio": -1,
  "baseExperienceYield": 0,
  "baseFriendship": 50,
  "evYield": {
    "hp": 0,
    "attack": 0,
    "defence": 0,
    "special_attack": 1,
    "special_defence": 0,
    "speed": 0
  },
  "experienceGroup": "slow",
  "eggCycles": 50,
  "eggGroups": [
    "undiscovered"
  ],
  "moves": [
    "1:astonish",
    "1:tackle",
    "tm:confuseray",
    "tm:endure",
    "tm:hex",
    "tm:lightscreen",
    "tm:nastyplot",
    "tm:nightshade",
    "tm:powergem",
    "tm:protect",
    "tm:reflect",
    "tm:rest",
    "tm:shadowball",
    "tm:sleeptalk",
    "tm:substitute",
    "tm:takedown",
    "tm:terablast",
    "tm:thief",
    "tutor:astonish",
    "tutor:tackle"
  ],
  "labels": [
    "gen9"
  ],
  "aspects": [],
  "height": 3,
  "weight": 50,
  "evolutions": [
    {
      "id": "gimmighoul_gholdengo",
      "variant": "level_up",
      "result": "gholdengo",
      "consumeHeldItem": false,
      "learnableMoves": [],
      "requirements": []
    }
  ],
  "cannotDynamax": false,
  "forms": [
    {
      "name": "Roaming",
      "primaryType": "ghost",
      "abilities": [
        "runaway"
      ],
      "baseStats": {
        "hp": 45,
        "attack": 30,
        "defence": 25,
        "special_attack": 75,
        "special_defence": 45,
        "speed": 80
      },
      "catchRate": 45,
      "maleRatio": -1,
      "baseExperienceYield": 0,
      "baseFriendship": 50,
      "evYield": {
        "hp": 0,
        "attack": 0,
        "defence": 0,
        "special_attack": 1,
        "special_defence": 0,
        "speed": 0
      },
      "experienceGroup": "slow",
      "eggCycles": 50,
      "eggGroups": [
        "undiscovered"
      ],
      "moves": [],
      "labels": [
        "gen9"
      ],
      "aspects": [
        "roaming"
      ],
      "height": 1,
      "weight": 1,
      "evolutions": [
        {
          "id": "gimmighoul_gholdengo",
          "variant": "level_up",
          "result": "gholdengo",
          "consumeHeldItem": false,
          "learnableMoves": [],
          "requirements": []
        }
      ],
      "cannotDynamax": false,
      "battleOnly": false
    }
  ],
  "pokedex": [
    "cobblemon.species.gimmighoul.desc"
  ]
}